<svg width="14" height="18" viewBox="0 0 14 18" fill="none" xmlns="http://www.w3.org/2000/svg">
<path d="M14 1H10.5L9.5 0H4.5L3.5 1H0V3H14V1ZM1 4V16C1 17.1 1.9 18 3 18H11C12.1 18 13 17.1 13 16V4H1ZM9 11V15H5V11H3L7 7L11 11H9Z" fill="#0BCAD4"/>
</svg>
